/Users/tpugrasa/rest-assured/src/test/java/steps/POJO.java
/Users/tpugrasa/rest-assured/src/test/java/runner/CucumberRunnerTest.java
/Users/tpugrasa/rest-assured/src/test/java/steps/StepDefs.java
/Users/tpugrasa/rest-assured/src/test/java/steps/baseDefs.java
/Users/tpugrasa/rest-assured/src/test/java/com/api/AppTest.java
